…
    ## [1] 5

#### Exercise 3

First I subset the `flights` dataframe using the `dplyr` function
`filter()`.

``` r
(AA_flights <- filter(flights, carrier == "AA"))  ## creates a new dataframe with only American Airlines flights
```

    ## # A tibble: 32,729 × 19
    ##     year month   day dep_time sched_dep_time dep_delay arr_time sched_arr_time
    ##    <int> <int> <int>    <int>          <int>     <dbl>    <int>          <int>
    ##  1  2013     1     1      542            540         2      923            850
    ##  2  2013     1     1      558            600        -2      753            745
    ##  3  2013     1     1      559            600        -1      941            910
    ##  4  2013     1     1      606            610        -4      858            910
    ##  5  2013     1     1      623            610        13      920            915
    ##  6  2013     1     1      628            630        -2     1137           1140
    ##  7  2013     1     1      629            630        -1      824            810
    ##  8  2013     1     1      635            635         0     1028            940
    ##  9  2013     1     1      656            700        -4      854            850
    ## 10  2013     1     1      656            659        -3      949            959
    ## # … with 32,719 more rows, and 11 more variables: arr_delay <dbl>,
    ## #   carrier <chr>, flight <int>, tailnum <chr>, origin <chr>, dest <chr>,
    ## #   air_time <dbl>, distance <dbl>, hour <dbl>, minute <dbl>, time_hour <dttm>
…
